<?xml version="1.0" encoding="UTF-8"?>
<svg width="50px" height="50px" viewBox="0 0 50 50" version="1.1" xmlns="http://www.w3.org/2000/svg" xmlns:xlink="http://www.w3.org/1999/xlink">
    <!-- Generator: Sketch 50 (54983) - http://www.bohemiancoding.com/sketch -->
    <title>Group</title>
    <desc>Created with Sketch.</desc>
    <defs></defs>
    <g id="Symbols" stroke="none" stroke-width="1" fill="none" fill-rule="evenodd">
        <g id="Logo-Absa-80x80" transform="translate(-15.000000, -15.000000)" fill="#FFFFFF">
            <g id="Group" transform="translate(15.000000, 15.000000)">
                <path d="M20.471525,27.8138437 C20.0085875,27.8138437 19.6012125,27.7582812 19.045775,27.6286562 L19.045775,22.5952812 C19.5054625,22.4895312 19.961025,22.4069062 20.471525,22.4069062 C21.8602125,22.4069062 22.5268375,23.0364687 22.5268375,25.1103437 C22.5268375,27.1842812 21.8602125,27.8138437 20.471525,27.8138437 M20.8789,20.2219062 C20.2690875,20.2219062 19.613525,20.3300937 19.045775,20.4515312 L19.045775,15.4260312 L16.4904625,15.7037812 L16.4904625,29.3507812 C17.5459,29.6840937 18.9160875,29.9988437 20.2678375,29.9988437 C23.341525,29.9988437 25.1562125,28.9619062 25.1562125,25.1103437 C25.1562125,21.2588437 23.341525,20.2219062 20.8789,20.2219062" id="Fill-1"></path>
                <path d="M30.5629875,23.9808375 C29.47055,23.9623375 28.785425,23.9438375 28.785425,23.351275 C28.785425,22.573525 29.2483,22.4069 30.65555,22.4069 C31.5073,22.4069 32.7108625,22.573525 33.47005,22.7587125 L33.2663625,20.6478375 C32.2849875,20.3515875 31.19255,20.2219 30.470425,20.2219 C27.396675,20.2219 26.2116125,21.3329625 26.2116125,23.4253375 C26.2116125,25.4437125 27.4522375,25.96215 29.54455,25.9992125 C30.8963,26.0177125 31.599925,25.9807125 31.599925,26.869525 C31.599925,27.6472125 30.9888,27.8138375 29.674175,27.8138375 C28.2113625,27.8138375 27.1744875,27.59165 26.4153,27.3509625 L26.6189875,29.4618375 C27.6003625,29.8137125 28.526175,29.9988375 29.8778625,29.9988375 C33.1553,29.9988375 34.173675,28.8878375 34.173675,26.888025 C34.173675,24.3697125 32.525675,24.0179 30.5629875,23.9808375" id="Fill-3"></path>
                <path d="M12.3797937,27.7398062 C12.0464812,27.7953687 11.6021687,27.8693687 11.1391687,27.8693687 C10.0282312,27.8693687 9.56529375,27.5175562 9.56529375,26.7584312 C9.56529375,25.9621812 10.0096687,25.8324937 10.9355437,25.7769937 L12.3797937,25.6844312 L12.3797937,27.7398062 Z M10.7873562,20.2219312 C9.97266875,20.2219312 8.88023125,20.3515562 7.89885625,20.6478062 L7.69516875,22.7587437 C8.50991875,22.5735562 9.71348125,22.4069312 10.5096687,22.4069312 C11.8428562,22.4069312 12.3797937,22.5179937 12.3797937,23.5919937 L12.3797937,23.8883062 L10.6022312,23.9808062 C8.63948125,24.0919312 6.99154375,24.4253062 6.99154375,26.8879937 C6.99154375,28.8878062 8.00991875,29.9988687 11.0836687,29.9988687 C12.5094187,29.9988687 13.8796687,29.6840562 14.9351062,29.3507437 L14.9351062,23.4253687 C14.9351062,21.3329312 13.7685437,20.2219312 10.7873562,20.2219312 Z" id="Fill-5"></path>
                <path d="M40.6544813,27.7398062 C40.3211063,27.7953687 39.8767938,27.8693687 39.4137938,27.8693687 C38.3028563,27.8693687 37.8399188,27.5175562 37.8399188,26.7584312 C37.8399188,25.9621812 38.2843563,25.8324937 39.2101688,25.7769937 L40.6544813,25.6844312 L40.6544813,27.7398062 Z M39.0620438,20.2219312 C38.2472938,20.2219312 37.1548563,20.3515562 36.1734813,20.6478062 L35.9697938,22.7587437 C36.7844813,22.5735562 37.9881063,22.4069312 38.7842313,22.4069312 C40.1174813,22.4069312 40.6544813,22.5179937 40.6544813,23.5919937 L40.6544813,23.8883062 L38.8769188,23.9808062 C36.9141063,24.0919312 35.2661688,24.3696812 35.2661688,26.8879937 C35.2661688,28.8878062 36.2845438,29.9988687 39.3582938,29.9988687 C40.7840437,29.9988687 42.1542312,29.6840562 43.2097312,29.3507437 L43.2097312,23.4253687 C43.2097312,21.3329312 42.0431687,20.2219312 39.0620438,20.2219312 Z" id="Fill-7"></path>
                <path d="M44.624025,34.1508812 L47.6614625,35.5671938 C43.679275,44.0921938 35.030275,50.0000063 25.000025,50.0000063 C14.9697125,50.0000063 6.3207125,44.0921938 2.3385875,35.5671938 L5.3759625,34.1508812 C8.8243375,41.5331938 16.3140875,46.6491938 25.000025,46.6491938 C33.6858375,46.6491938 41.17565,41.5331938 44.624025,34.1508812 Z M45.3486687,32.4063125 C46.1898562,30.0956875 46.6491687,27.6015 46.6491687,25 C46.6491687,22.3985 46.1898562,19.9043125 45.3486687,17.5936875 L48.4982312,16.4473125 C49.4696687,19.115625 49.9999812,21.995875 49.9999812,25 C49.9999812,28.004125 49.4696687,30.884375 48.4982312,33.5526875 L45.3486687,32.4063125 Z M3.3508,25 C3.3508,27.6015 3.81005,30.0956875 4.6513,32.4063125 L1.5018,33.552625 C0.5303625,30.884375 -1.25e-05,28.004125 -1.25e-05,25 C-1.25e-05,21.995875 0.5303625,19.115625 1.5018,16.447375 L4.6513,17.5936875 C3.81005,19.9043125 3.3508,22.3985 3.3508,25 Z M25,3.35083125 C16.3140625,3.35083125 8.8243125,8.46676875 5.3759375,15.8491437 L2.3385625,14.4328313 C6.3206875,5.90783125 14.96975,1.875e-05 25,1.875e-05 C35.03025,1.875e-05 43.67925,5.90783125 47.6614375,14.4328313 L44.624,15.8491437 C41.1756875,8.46676875 33.685875,3.35083125 25,3.35083125 Z" id="Combined-Shape"></path>
            </g>
        </g>
    </g>
</svg>